{
  "type": "array",
  "items": {
    "allOf": [
      { "$ref": "../../../../../spec/fixtures/api/schemas/group_member.json" },
      {
        "required": ["using_license", "group_sso", "group_managed_account", "can_override", "is_overridden"],
        "properties": {
          "using_license": { "type": ["boolean", "null"] },
          "group_sso": { "type": ["boolean", "null"] },
          "group_managed_account": { "type": ["boolean", "null"] },
          "can_override": { "type": ["boolean"] },
          "is_overridden": { "type": ["boolean"] }
        }
      }
    ] 
  }
}
